[
  {
    "objective" : "Hfc Volunteering",
    "id" : "50f99dadc2e67adddd3a8f73",
    "locations" : null,
    "description" : "hello! H4C",
    "name" : "Akshaya ",    
     "creationDate":1357364269259
  },
  {
    "objective" : "Hfc Volunteeering",
    "id" : "50f99dadc2e67adddd3a8f75",   
    "locations" : null,
    "description" : "Hi! H4C",
    "name" : "Hfc Volunteeering",
    "creationDate":1357364269259
  }
]